<?xml version="1.0" encoding="utf-8"?>
<!-- Generator: Adobe Illustrator 22.0.1, SVG Export Plug-In . SVG Version: 6.00 Build 0)  -->
<svg version="1.1" id="Capa_1" xmlns="http://www.w3.org/2000/svg" xmlns:xlink="http://www.w3.org/1999/xlink" x="0px" y="0px"
	 viewBox="0 0 500 500" style="enable-background:new 0 0 500 500;" xml:space="preserve">
<style type="text/css">
	.st0{fill:#B89B3A;}
</style>
<g>
	<g>
		<g>
			<g>
				<path class="st0" d="M251.8,241.5c-15.1,0-27.4,12.3-27.4,27.4c0,15.1,12.3,27.4,27.4,27.4c15.1,0,27.4-12.3,27.4-27.4
					C279.2,253.8,266.9,241.5,251.8,241.5z M251.8,285.6c-9.2,0-16.7-7.5-16.7-16.7s7.5-16.7,16.7-16.7c9.2,0,16.7,7.5,16.7,16.7
					S261,285.6,251.8,285.6z"/>
			</g>
		</g>
		<g>
			<g>
				<path class="st0" d="M251.8,160.4c-19,0-34.4,15.4-34.4,34.4s15.4,34.4,34.4,34.4s34.4-15.4,34.4-34.4
					C286.2,175.8,270.8,160.4,251.8,160.4z M251.8,218.5c-13,0-23.7-10.6-23.7-23.7c0-13,10.6-23.7,23.7-23.7s23.7,10.6,23.7,23.7
					C275.5,207.8,264.9,218.5,251.8,218.5z"/>
			</g>
		</g>
		<g>
			<g>
				<path class="st0" d="M220.8,223c-2.4-8.9-8.1-16.3-16-20.9c-16.4-9.5-37.5-3.8-47,12.6c-4.6,8-5.8,17.2-3.4,26.1
					c2.4,8.9,8.1,16.3,16,20.9c5.4,3.1,11.3,4.6,17.1,4.6c11.9,0,23.5-6.2,29.8-17.2C222,241.1,223.2,231.8,220.8,223z M208.1,243.7
					c-6.5,11.3-21,15.2-32.3,8.7c-5.5-3.2-9.4-8.3-11-14.4c-1.6-6.1-0.8-12.5,2.4-18c4.4-7.6,12.3-11.8,20.5-11.8
					c4,0,8.1,1,11.8,3.2c5.5,3.2,9.4,8.3,11,14.4C212.1,231.8,211.3,238.2,208.1,243.7z"/>
			</g>
		</g>
		<g>
			<g>
				<path class="st0" d="M217.4,288.8c-9.5-16.4-30.5-22.1-47-12.6c-8,4.6-13.6,12-16,20.9c-2.4,8.9-1.2,18.1,3.4,26.1
					c6.4,11,17.9,17.2,29.8,17.2c5.8,0,11.7-1.5,17.1-4.6c8-4.6,13.6-12,16-20.9C223.2,306,222,296.8,217.4,288.8z M210.5,312.1
					c-1.6,6.1-5.6,11.2-11,14.4c-11.3,6.5-25.8,2.6-32.3-8.7c-3.2-5.5-4-11.8-2.4-18c1.6-6.1,5.5-11.2,11-14.4
					c3.7-2.1,7.8-3.2,11.8-3.2c8.2,0,16.2,4.2,20.5,11.8C211.3,299.6,212.1,306,210.5,312.1z"/>
			</g>
		</g>
		<g>
			<g>
				<path class="st0" d="M251.8,308.7c-19,0-34.4,15.4-34.4,34.4s15.4,34.4,34.4,34.4s34.4-15.4,34.4-34.4
					C286.2,324.1,270.8,308.7,251.8,308.7z M251.8,366.7c-13,0-23.7-10.6-23.7-23.7s10.6-23.7,23.7-23.7s23.7,10.6,23.7,23.7
					C275.5,356.1,264.9,366.7,251.8,366.7z"/>
			</g>
		</g>
		<g>
			<g>
				<path class="st0" d="M349.2,297.1c-2.4-8.9-8.1-16.3-16-20.9c-16.4-9.5-37.5-3.8-47,12.6c-4.6,8-5.8,17.2-3.4,26.1
					c2.4,8.9,8.1,16.3,16,20.9c5.4,3.1,11.3,4.6,17.1,4.6c11.9,0,23.5-6.2,29.8-17.2C350.4,315.2,351.6,306,349.2,297.1z
					 M336.5,317.8c-6.5,11.3-21,15.2-32.3,8.7c-5.5-3.2-9.4-8.3-11-14.4c-1.6-6.1-0.8-12.5,2.4-18c4.4-7.6,12.3-11.8,20.5-11.8
					c4,0,8.1,1,11.8,3.2c5.5,3.2,9.4,8.3,11,14.4C340.5,306,339.7,312.4,336.5,317.8z"/>
			</g>
		</g>
		<g>
			<g>
				<path class="st0" d="M345.8,214.7c-9.5-16.4-30.5-22.1-47-12.6c-8,4.6-13.6,12-16,20.9c-2.4,8.9-1.2,18.1,3.4,26.1
					c6.4,11,17.9,17.2,29.8,17.2c5.8,0,11.7-1.5,17.1-4.6c8-4.6,13.6-12,16-20.9C351.6,231.9,350.4,222.6,345.8,214.7z M338.9,238
					c-1.6,6.1-5.5,11.2-11,14.4c-11.3,6.5-25.8,2.6-32.3-8.7c-3.2-5.5-4-11.8-2.4-18c1.6-6.1,5.6-11.2,11-14.4
					c3.7-2.1,7.8-3.2,11.8-3.2c8.2,0,16.2,4.2,20.5,11.8C339.7,225.5,340.5,231.9,338.9,238z"/>
			</g>
		</g>
	</g>
	<path class="st0" d="M82.9,257.4c4.4,0,8-3.6,8-8v-13.3c0-65.9,53.6-119.5,119.5-119.5h82.9c65.9,0,119.5,53.6,119.5,119.5v13.3
		c0,4.4,3.6,8,8,8c4.4,0,8-3.6,8-8v-13.3c0-74.7-60.8-135.5-135.5-135.5h-82.9c-74.7,0-135.5,60.8-135.5,135.5v13.3
		C74.9,253.9,78.5,257.4,82.9,257.4z"/>
	<path class="st0" d="M82.9,215.6c4.4,0,8-3.6,8-8v-13.3c0-65.9,53.6-119.5,119.5-119.5h82.9c65.9,0,119.5,53.6,119.5,119.5v13.3
		c0,4.4,3.6,8,8,8c4.4,0,8-3.6,8-8v-13.3c0-74.7-60.8-135.5-135.5-135.5h-82.9c-74.7,0-135.5,60.8-135.5,135.5v13.3
		C74.9,212.1,78.5,215.6,82.9,215.6z"/>
	<path class="st0" d="M420.8,277.6c-4.4,0-8,3.6-8,8v13.3c0,65.9-53.6,119.5-119.5,119.5h-82.9c-65.9,0-119.5-53.6-119.5-119.5
		v-13.3c0-4.4-3.6-8-8-8c-4.4,0-8,3.6-8,8v13.3c0,74.7,60.8,135.5,135.5,135.5h82.9c74.7,0,135.5-60.8,135.5-135.5v-13.3
		C428.8,281.1,425.2,277.6,420.8,277.6z"/>
	<g>
		<g>
			<path class="st0" d="M310.5,390.7c-1.1-3.4-4.8-5.2-8.2-4.1c-3.6,1.2-7.4,2.3-11.1,3.2c-3.5,0.8-5.6,4.3-4.8,7.8
				c0.7,3,3.4,5,6.3,5c0.5,0,1-0.1,1.5-0.2c4.1-1,8.2-2.2,12.2-3.5C309.8,397.8,311.6,394.1,310.5,390.7z"/>
		</g>
	</g>
	<g>
		<g>
			<path class="st0" d="M365.3,351.8c-2.6-2.5-6.7-2.3-9.2,0.3c-10.2,10.9-22.1,19.8-35.3,26.7c-3.2,1.6-4.4,5.6-2.8,8.7
				c1.2,2.2,3.4,3.5,5.8,3.5c1,0,2-0.2,3-0.7c14.5-7.5,27.5-17.4,38.8-29.3C368,358.4,367.9,354.3,365.3,351.8z"/>
		</g>
	</g>
</g>
</svg>
