<?xml version="1.0" encoding="utf-8"?>
<!-- Generator: Adobe Illustrator 22.0.0, SVG Export Plug-In . SVG Version: 6.00 Build 0)  -->
<svg version="1.1" id="Layer_1" xmlns="http://www.w3.org/2000/svg" xmlns:xlink="http://www.w3.org/1999/xlink" x="0px" y="0px"
	 viewBox="0 0 138.2 138.3" style="enable-background:new 0 0 138.2 138.3;" xml:space="preserve">
<style type="text/css">
	.st0{fill:#D09C29;}
</style>
<g>
	<path class="st0" d="M69.1,138.3L0,69.1L69.1,0l69.1,69.1L69.1,138.3z M1.1,69.1l68,68l68-68l-68-68L1.1,69.1z"/>
</g>
</svg>
